<?xml version="1.0" encoding="utf-8"?>
<!-- Generator: Adobe Illustrator 17.0.0, SVG Export Plug-In . SVG Version: 6.00 Build 0)  -->
<!DOCTYPE svg PUBLIC "-//W3C//DTD SVG 1.1//EN" "http://www.w3.org/Graphics/SVG/1.1/DTD/svg11.dtd">
<svg version="1.1" id="Capa_1" xmlns="http://www.w3.org/2000/svg" xmlns:xlink="http://www.w3.org/1999/xlink" x="0px" y="0px"
	 width="512px" height="512px" viewBox="0 0 512 512" enable-background="new 0 0 512 512" xml:space="preserve">
<g>
	<g>
		<circle fill="#CCCCCC" cx="256.295" cy="59.077" r="14.769"/>
	</g>
</g>
<g>
	<g>
		<path fill="#CCCCCC" d="M452.923,118.153c0-21.751-17.632-39.385-39.384-39.385h-54.676c-7.294-8.102-16.662-14.302-27.427-17.398
			c-9.067-2.607-16.046-9.585-18.654-18.652C305.688,18.048,282.952,0,255.999,0c-26.952,0-49.686,18.047-56.781,42.715
			c-2.612,9.078-9.607,16.048-18.686,18.665c-10.752,3.099-20.112,9.292-27.4,17.388H98.461c-21.753,0-39.385,17.633-39.385,39.385
			v354.462c0,21.751,17.632,39.385,39.385,39.385c90.42,0,201.549,0,315.078,0c21.753,0,39.385-17.633,39.385-39.385
			C452.924,360.764,452.923,253.658,452.923,118.153z M157.539,117.836c0.135-17.312,11.833-32.746,28.447-37.534
			c15.643-4.507,27.664-16.524,32.156-32.143c4.821-16.762,20.388-28.467,37.856-28.467c17.47,0,33.036,11.705,37.856,28.468
			c4.495,15.628,16.508,27.642,32.137,32.136c16.761,4.821,28.468,20.389,28.468,37.856v19.692h-196.92V117.836z M413.539,492.308
			c-105.176,0-210.18,0-315.078,0c-10.859,0-19.692-8.835-19.692-19.692V118.153c0-10.858,8.833-19.692,19.692-19.692h42.76
			c-2.129,6.021-3.321,12.484-3.372,19.221v39.856h236.306v-39.385c0-6.911-1.221-13.527-3.402-19.692h42.787
			c10.858,0,19.691,8.835,19.691,19.692c0,56.299-0.001,320.314,0.002,354.462C433.232,483.473,424.398,492.308,413.539,492.308z"/>
	</g>
</g>
<g>
	<g>
		<rect x="196.923" y="216.616" fill="#CCCCCC" width="177.232" height="19.692"/>
	</g>
</g>
<g>
	<g>
		<rect x="196.923" y="275.694" fill="#CCCCCC" width="177.232" height="19.692"/>
	</g>
</g>
<g>
	<g>
		<rect x="196.923" y="334.771" fill="#CCCCCC" width="177.232" height="19.692"/>
	</g>
</g>
<g>
	<g>
		<rect x="196.923" y="393.848" fill="#CCCCCC" width="177.232" height="19.692"/>
	</g>
</g>
<g>
	<g>
		<circle fill="#CCCCCC" cx="147.692" cy="226.463" r="9.846"/>
	</g>
</g>
<g>
	<g>
		<circle fill="#CCCCCC" cx="147.692" cy="285.54" r="9.846"/>
	</g>
</g>
<g>
	<g>
		<circle fill="#CCCCCC" cx="147.692" cy="344.617" r="9.846"/>
	</g>
</g>
<g>
	<g>
		<circle fill="#CCCCCC" cx="147.692" cy="403.694" r="9.846"/>
	</g>
</g>
</svg>
