<?xml version="1.0" encoding="utf-8"?>
<!-- Generator: Adobe Illustrator 17.0.0, SVG Export Plug-In . SVG Version: 6.00 Build 0)  -->
<!DOCTYPE svg PUBLIC "-//W3C//DTD SVG 1.1//EN" "http://www.w3.org/Graphics/SVG/1.1/DTD/svg11.dtd">
<svg version="1.1" id="Слой_1" xmlns="http://www.w3.org/2000/svg" xmlns:xlink="http://www.w3.org/1999/xlink" x="0px" y="0px"
	 width="96px" height="96px" viewBox="-2.876 0.025 96 96" enable-background="new -2.876 0.025 96 96" xml:space="preserve">
<g id="Слой_2">
	<g enable-background="new    ">
		<path fill="#26CC73" d="M39.766,10c0,2.761-0.977,5.117-2.93,7.07c-1.953,1.953-4.31,2.93-7.07,2.93
			c-2.761,0-5.117-0.977-7.07-2.93s-2.93-4.309-2.93-7.07c0-2.76,0.977-5.117,2.93-7.07S27.005,0,29.766,0
			c2.76,0,5.117,0.977,7.07,2.93S39.766,7.24,39.766,10z M34.532,6.563c-0.053-0.234-0.176-0.416-0.371-0.547
			c-0.195-0.13-0.41-0.169-0.645-0.117c-0.234,0.053-0.43,0.183-0.586,0.391l-4.219,6.445l-1.992-1.875
			c-0.183-0.156-0.397-0.234-0.645-0.234c-0.248,0-0.449,0.092-0.605,0.273c-0.156,0.183-0.229,0.397-0.215,0.645
			c0.013,0.248,0.098,0.449,0.254,0.605l2.813,2.578c0.025,0.026,0.045,0.046,0.059,0.059c0.013,0.014,0.025,0.02,0.039,0.02
			c0.013,0,0.045,0.014,0.098,0.039c0.078,0.026,0.13,0.053,0.156,0.078c0.052,0,0.104,0,0.156,0c0.078,0.026,0.143,0.026,0.195,0
			c0.025,0,0.052,0,0.078,0c0.104-0.025,0.195-0.064,0.273-0.117l0.039-0.039l0.117-0.078c0.025-0.025,0.052-0.064,0.078-0.117
			l4.805-7.344C34.544,7.019,34.583,6.797,34.532,6.563z"/>
	</g>
</g>
<g>
	<g>
		<path fill="#2C8DBF" d="M69.088,26.05H21.16c-0.77,0-1.394,0.624-1.394,1.394v67.211c0,0.77,0.624,1.394,1.394,1.394h36.444
			c0.37,0,0.724-0.147,0.986-0.408l11.484-11.484c0.261-0.261,0.408-0.616,0.408-0.986V27.444
			C70.483,26.674,69.858,26.05,69.088,26.05z M58.996,91.292l-0.006-6.734l6.734,0.006L58.996,91.292z M67.694,81.776l-10.098-0.009
			h-0.001c-0.37,0-0.724,0.147-0.986,0.408c-0.262,0.262-0.409,0.617-0.408,0.987L56.21,93.26H22.555V28.839h45.139V81.776z"/>
	</g>
</g>
<g>
	<g>
		<path fill="#2C8DBF" d="M36.68,37.78c-0.545-0.545-1.427-0.545-1.972,0l-4.104,4.104l-1.018-1.02
			c-0.545-0.545-1.427-0.545-1.972,0s-0.545,1.427,0,1.972l2.005,2.005c0.261,0.261,0.616,0.408,0.986,0.408
			c0.37,0,0.724-0.147,0.986-0.408l5.09-5.09C37.225,39.207,37.225,38.324,36.68,37.78z"/>
	</g>
</g>
<g>
	<g>
		<path fill="#2C8DBF" d="M61.649,40.559H61.16c-0.77,0-1.394,0.624-1.394,1.394s0.624,1.394,1.394,1.394h0.489
			c0.77,0,1.394-0.624,1.394-1.394C63.044,41.183,62.419,40.559,61.649,40.559z"/>
	</g>
</g>
<g>
	<g>
		<path fill="#2C8DBF" d="M56.698,40.559H41.085c-0.77,0-1.394,0.624-1.394,1.394s0.624,1.394,1.394,1.394h15.613
			c0.77,0,1.394-0.624,1.394-1.394S57.468,40.559,56.698,40.559z"/>
	</g>
</g>
<g>
	<g>
		<path fill="#2C8DBF" d="M36.68,51.279c-0.545-0.545-1.427-0.545-1.972,0l-4.104,4.104l-1.018-1.02
			c-0.545-0.545-1.427-0.545-1.972,0s-0.545,1.427,0,1.972l2.005,2.005c0.261,0.261,0.616,0.408,0.986,0.408
			c0.37,0,0.724-0.147,0.986-0.408l5.09-5.09C37.225,52.706,37.225,51.823,36.68,51.279z"/>
	</g>
</g>
<g>
	<g>
		<path fill="#2C8DBF" d="M61.649,54.058H41.085c-0.77,0-1.394,0.624-1.394,1.394s0.624,1.394,1.394,1.394h20.564
			c0.77,0,1.394-0.624,1.394-1.394S62.419,54.058,61.649,54.058z"/>
	</g>
</g>
<g>
	<g>
		<path fill="#2C8DBF" d="M36.68,64.735c-0.545-0.545-1.427-0.545-1.972,0l-4.104,4.104l-1.018-1.019
			c-0.545-0.545-1.427-0.545-1.972,0s-0.545,1.427,0,1.972l2.005,2.005c0.261,0.261,0.616,0.408,0.986,0.408
			c0.37,0,0.724-0.147,0.986-0.408l5.09-5.09C37.225,66.163,37.225,65.28,36.68,64.735z"/>
	</g>
</g>
<g>
	<g>
		<path fill="#2C8DBF" d="M61.649,67.514H41.085c-0.77,0-1.394,0.624-1.394,1.394s0.624,1.394,1.394,1.394h20.564
			c0.77,0,1.394-0.624,1.394-1.394C63.044,68.138,62.419,67.514,61.649,67.514z"/>
	</g>
</g>
</svg>
