<svg style="display: block" viewBox="0 0 15.3 29" xmlns="http://www.w3.org/2000/svg" xmlns:xlink="http://www.w3.org/1999/xlink"> 
<style type="text/css"> #rec43373187 .t-slds__arrow_wrapper polyline { -webkit-transition: stroke ease-in-out .2s; -moz-transition: stroke ease-in-out .2s; -o-transition: stroke ease-in-out .2s; transition: stroke ease-in-out .2s; } #rec43373187 .t-slds__arrow_wrapper:hover polyline { stroke: #2c8dbf !important; } </style> 
<desc>Left</desc> 
<polyline fill="none" stroke="#2c8dbf" stroke-linejoin="butt" stroke-linecap="butt" stroke-width="1" points="0.5,0.5 14.5,14.5 0.5,28.5"></polyline> </svg>