<?xml version="1.0" encoding="utf-8"?>
<!-- Generator: Adobe Illustrator 17.0.0, SVG Export Plug-In . SVG Version: 6.00 Build 0)  -->
<!DOCTYPE svg PUBLIC "-//W3C//DTD SVG 1.1//EN" "http://www.w3.org/Graphics/SVG/1.1/DTD/svg11.dtd">
<svg version="1.1" id="Слой_1" xmlns="http://www.w3.org/2000/svg" xmlns:xlink="http://www.w3.org/1999/xlink" x="0px" y="0px"
	 width="430px" height="430px" viewBox="624.5 85 430 430" enable-background="new 624.5 85 430 430" xml:space="preserve">
<g>
	<path fill="#2C8DBF" d="M1039.533,100H639.466c-3.525,0-6.383,2.858-6.383,6.383v102.128c0,3.525,2.858,6.383,6.383,6.383h400.067
		c3.525,0,6.383-2.858,6.383-6.383V106.383C1045.916,102.858,1043.058,100,1039.533,100z M645.849,112.766h261.172v89.362H645.849
		V112.766z M1033.15,202.128H919.787v-89.362h113.363V202.128z"/>
	<path fill="#2C8DBF" d="M754.595,414.894h111.702c3.525,0,6.383-2.858,6.383-6.383c0-3.525-2.858-6.383-6.383-6.383H754.595
		c-3.525,0-6.383,2.858-6.383,6.383C748.212,412.036,751.07,414.894,754.595,414.894z"/>
	<path fill="#2C8DBF" d="M1004.001,368.085H754.595c-3.525,0-6.383,2.858-6.383,6.383s2.858,6.383,6.383,6.383h249.406
		c3.525,0,6.383-2.858,6.383-6.383S1007.526,368.085,1004.001,368.085z"/>
	<path fill="#2C8DBF" d="M754.595,312.766h111.702c3.525,0,6.383-2.858,6.383-6.383c0-3.525-2.858-6.383-6.383-6.383H754.595
		c-3.525,0-6.383,2.858-6.383,6.383C748.212,309.908,751.07,312.766,754.595,312.766z"/>
	<path fill="#2C8DBF" d="M754.595,278.723h247.406c3.525,0,6.383-2.858,6.383-6.383c0-3.525-2.858-6.383-6.383-6.383H754.595
		c-3.525,0-6.383,2.858-6.383,6.383C748.212,275.866,751.07,278.723,754.595,278.723z"/>
	<path fill="#2C8DBF" d="M1039.533,231.915H639.466c-3.525,0-6.383,2.858-6.383,6.383v102.128c0,3.525,2.858,6.383,6.383,6.383
		h400.067c3.525,0,6.383-2.858,6.383-6.383V238.298C1045.916,234.773,1043.058,231.915,1039.533,231.915z M1033.15,334.043H645.849
		v-89.362h387.301V334.043z"/>
	<path fill="#2C8DBF" d="M956.843,171.26c5.401,5.401,12.581,8.376,20.22,8.376c5.246,0,10.276-1.404,14.663-4.033l14.793,14.793
		c1.366,1.366,3.158,2.051,4.949,2.051s3.583-0.683,4.949-2.051c2.734-2.734,2.734-7.166,0-9.899l-14.793-14.793
		c2.629-4.386,4.033-9.416,4.033-14.663c0-7.638-2.975-14.819-8.376-20.22c-5.4-5.4-12.581-8.375-20.219-8.375
		c-7.638,0-14.819,2.975-20.22,8.375C945.695,141.97,945.695,160.111,956.843,171.26L956.843,171.26z M966.743,140.721
		c2.757-2.756,6.421-4.275,10.32-4.275c3.898,0,7.564,1.518,10.32,4.275c2.757,2.757,4.275,6.421,4.275,10.32
		s-1.518,7.563-4.275,10.32c-2.757,2.757-6.421,4.275-10.32,4.275c-3.899,0-7.564-1.518-10.32-4.275
		C961.053,155.671,961.053,146.412,966.743,140.721z"/>
	<path fill="#2C8DBF" d="M729.063,359.574h-51.064c-3.525,0-6.383,2.858-6.383,6.383v51.064c0,3.525,2.858,6.383,6.383,6.383h51.064
		c3.525,0,6.383-2.858,6.383-6.383v-51.064C735.446,362.432,732.588,359.574,729.063,359.574z M722.68,410.638h-38.298V372.34
		h38.298V410.638z"/>
	<path fill="#2C8DBF" d="M866.297,478.723H754.595c-3.525,0-6.383,2.858-6.383,6.383c0,3.525,2.858,6.383,6.383,6.383h111.702
		c3.525,0,6.383-2.858,6.383-6.383C872.68,481.581,869.822,478.723,866.297,478.723z"/>
	<path fill="#2C8DBF" d="M1003.001,444.681H754.595c-3.525,0-6.383,2.858-6.383,6.383c0,3.525,2.858,6.383,6.383,6.383h248.406
		c3.525,0,6.383-2.858,6.383-6.383C1009.384,447.539,1006.526,444.681,1003.001,444.681z"/>
	<path fill="#2C8DBF" d="M729.063,436.17h-51.064c-3.525,0-6.383,2.858-6.383,6.383v51.064c0,3.525,2.858,6.383,6.383,6.383h51.064
		c3.525,0,6.383-2.858,6.383-6.383v-51.064C735.446,439.028,732.588,436.17,729.063,436.17z M722.68,487.234h-38.298v-38.298h38.298
		V487.234z"/>
	<path fill="#2C8DBF" d="M677.999,321.277h51.064c3.525,0,6.383-2.858,6.383-6.383V263.83c0-3.525-2.858-6.383-6.383-6.383h-51.064
		c-3.525,0-6.383,2.858-6.383,6.383v51.064C671.616,318.419,674.474,321.277,677.999,321.277z M684.382,270.213h38.298v38.298
		h-38.298V270.213z"/>
</g>
</svg>
